{ "test_run" : [ 
        { "kV": 120,
        "mA": 10,
        "Frames": 10,
        "Bits" :  9,
        "IntTime": 500,
        "DM" : 1,
        "GainSettings" : [
                {   "Gain" : "25pC" }, 
            ]
        }
    ]
}
