^C:\USERS\THOLZMANN\WORKSPACE_VISUAL_C++\XTILESCRIPTING\PCH.CPP
/c /IC:\USERS\THOLZMANN\WORKSPACE_VISUAL_C++\JSONCPP\DIST\JSON /IC:\USERS\THOLZMANN\WORKSPACE_VISUAL_C++\XTILESCRIPTING\INCLUDE /ZI /JMC /nologo /W3 /WX- /diagnostics:column /sdl /Od /D _CRT_SECURE_NO_WARNINGS /D _WINDOWS /D _DEBUG /D _MBCS /D _AFXDLL /Gm- /EHsc /RTC1 /MDd /GS /fp:precise /Zc:wchar_t /Zc:forScope /Zc:inline /Yc"pch.h" /Fp"X64\DEBUG\XTILESCRIPTING.PCH" /Fo"X64\DEBUG\\" /Fd"X64\DEBUG\VC142.PDB" /Gd /TP /FC C:\USERS\THOLZMANN\WORKSPACE_VISUAL_C++\XTILESCRIPTING\PCH.CPP
^C:\USERS\THOLZMANN\WORKSPACE_VISUAL_C++\JSONCPP\DIST\JSONCPP.CPP
/c /IC:\USERS\THOLZMANN\WORKSPACE_VISUAL_C++\JSONCPP\DIST\JSON /IC:\USERS\THOLZMANN\WORKSPACE_VISUAL_C++\XTILESCRIPTING\INCLUDE /ZI /JMC /nologo /W3 /WX- /diagnostics:column /sdl /Od /D _CRT_SECURE_NO_WARNINGS /D _WINDOWS /D _DEBUG /D _MBCS /D _AFXDLL /Gm- /EHsc /RTC1 /MDd /GS /fp:precise /Zc:wchar_t /Zc:forScope /Zc:inline /Fo"X64\DEBUG\\" /Fd"X64\DEBUG\VC142.PDB" /Gd /TP /FC C:\USERS\THOLZMANN\WORKSPACE_VISUAL_C++\JSONCPP\DIST\JSONCPP.CPP
^C:\USERS\THOLZMANN\WORKSPACE_VISUAL_C++\XTILESCRIPTING\XTILESCRIPTING.CPP
/c /IC:\USERS\THOLZMANN\WORKSPACE_VISUAL_C++\JSONCPP\DIST\JSON /IC:\USERS\THOLZMANN\WORKSPACE_VISUAL_C++\XTILESCRIPTING\INCLUDE /ZI /JMC /nologo /W3 /WX- /diagnostics:column /sdl /Od /D _CRT_SECURE_NO_WARNINGS /D _WINDOWS /D _DEBUG /D _MBCS /D _AFXDLL /Gm- /EHsc /RTC1 /MDd /GS /fp:precise /Zc:wchar_t /Zc:forScope /Zc:inline /Fo"X64\DEBUG\\" /Fd"X64\DEBUG\VC142.PDB" /Gd /TP /FC C:\USERS\THOLZMANN\WORKSPACE_VISUAL_C++\XTILESCRIPTING\XTILESCRIPTING.CPP
^C:\USERS\THOLZMANN\WORKSPACE_VISUAL_C++\XTILESCRIPTING\XTILESCRIPTINGDLG.CPP
/c /IC:\USERS\THOLZMANN\WORKSPACE_VISUAL_C++\JSONCPP\DIST\JSON /IC:\USERS\THOLZMANN\WORKSPACE_VISUAL_C++\XTILESCRIPTING\INCLUDE /ZI /JMC /nologo /W3 /WX- /diagnostics:column /sdl /Od /D _CRT_SECURE_NO_WARNINGS /D _WINDOWS /D _DEBUG /D _MBCS /D _AFXDLL /Gm- /EHsc /RTC1 /MDd /GS /fp:precise /Zc:wchar_t /Zc:forScope /Zc:inline /Fo"X64\DEBUG\\" /Fd"X64\DEBUG\VC142.PDB" /Gd /TP /FC C:\USERS\THOLZMANN\WORKSPACE_VISUAL_C++\XTILESCRIPTING\XTILESCRIPTINGDLG.CPP
