^C:\Users\tholzmann\workspace_visual_c++\XTileScripting\XTileScripting.vcxproj
C:\Users\tholzmann\workspace_visual_c++\XTileScripting\x64\Debug\XTileScripting.lib
C:\Users\tholzmann\workspace_visual_c++\XTileScripting\x64\Debug\XTileScripting.exp
